[
    {
        "type": "message",
        "subtype": "bot_message",
        "text": "This content can't be displayed.",
        "ts": "1592035384.000100",
        "bot_id": "B0152N7U6PL",
        "blocks": [
            {
                "type": "section",
                "block_id": "JxWAA",
                "text": {
                    "type": "mrkdwn",
                    "text": "# DS Science Academy|227|0.5.8",
                    "verbatim": false
                }
            },
            {
                "type": "section",
                "block_id": "=hxv",
                "text": {
                    "type": "mrkdwn",
                    "text": "# DS Science Academy",
                    "verbatim": false
                }
            },
            {
                "type": "section",
                "block_id": "i2Q",
                "text": {
                    "type": "mrkdwn",
                    "text": " - INZAMAM KHAN | inzamam31e0 | AJYpjL8znwlg2Q4W | _ | NO CONTACT&gt;",
                    "verbatim": false
                }
            },
            {
                "type": "section",
                "block_id": "IPw",
                "text": {
                    "type": "mrkdwn",
                    "text": "ASSIGNMENTS | video issue",
                    "verbatim": false
                }
            },
            {
                "type": "section",
                "block_id": "messagesection",
                "text": {
                    "type": "mrkdwn",
                    "text": "Sir video playing mein problems aati hai.",
                    "verbatim": false
                }
            },
            {
                "type": "section",
                "block_id": "device",
                "text": {
                    "type": "mrkdwn",
                    "text": "ione | Micromax | Micromax ione",
                    "verbatim": false
                }
            }
        ]
    },
    {
        "type": "message",
        "subtype": "bot_message",
        "text": "This content can't be displayed.",
        "ts": "1592036378.000100",
        "bot_id": "B0152N7U6PL",
        "blocks": [
            {
                "type": "section",
                "block_id": "wEGc",
                "text": {
                    "type": "mrkdwn",
                    "text": "# DS Science Academy|227|0.5.8",
                    "verbatim": false
                }
            },
            {
                "type": "section",
                "block_id": "vvn",
                "text": {
                    "type": "mrkdwn",
                    "text": "# DS Science Academy",
                    "verbatim": false
                }
            },
            {
                "type": "section",
                "block_id": "clBm",
                "text": {
                    "type": "mrkdwn",
                    "text": " - AKASH AGRAWAL | akash08a7 | y6pOBx4YWn0L2j8r | _ | NO CONTACT&gt;",
                    "verbatim": false
                }
            },
            {
                "type": "section",
                "block_id": "tp9m",
                "text": {
                    "type": "mrkdwn",
                    "text": "LECTURES | video issue",
                    "verbatim": false
                }
            },
            {
                "type": "section",
                "block_id": "messagesection",
                "text": {
                    "type": "mrkdwn",
                    "text": "I have problem with video there is no download option and net is not properly working on this app\n\n",
                    "verbatim": false
                }
            },
            {
                "type": "section",
                "block_id": "device",
                "text": {
                    "type": "mrkdwn",
                    "text": "vivo 1713 | vivo | vivo 1713",
                    "verbatim": false
                }
            }
        ]
    },
    {
        "type": "message",
        "subtype": "bot_message",
        "text": "This content can't be displayed.",
        "ts": "1592039275.000100",
        "bot_id": "B0152N7U6PL",
        "blocks": [
            {
                "type": "section",
                "block_id": "qiD",
                "text": {
                    "type": "mrkdwn",
                    "text": "# DS Science Academy|227|0.5.8",
                    "verbatim": false
                }
            },
            {
                "type": "section",
                "block_id": "7uP6h",
                "text": {
                    "type": "mrkdwn",
                    "text": "# DS Science Academy",
                    "verbatim": false
                }
            },
            {
                "type": "section",
                "block_id": "PhM6",
                "text": {
                    "type": "mrkdwn",
                    "text": " - SUMER SINGH GURJAR | sumersinghbb41 | Xw5ObED5A0Jg7lrN | _ | NO CONTACT&gt;",
                    "verbatim": false
                }
            },
            {
                "type": "section",
                "block_id": "I3Q",
                "text": {
                    "type": "mrkdwn",
                    "text": "OTHER TECHNICAL ISSUE | _",
                    "verbatim": false
                }
            },
            {
                "type": "section",
                "block_id": "messagesection",
                "text": {
                    "type": "mrkdwn",
                    "text": "I have problem with ",
                    "verbatim": false
                }
            },
            {
                "type": "section",
                "block_id": "device",
                "text": {
                    "type": "mrkdwn",
                    "text": "vivo 1901 | vivo | vivo 1901",
                    "verbatim": false
                }
            }
        ]
    },
    {
        "type": "message",
        "subtype": "bot_message",
        "text": "This content can't be displayed.",
        "ts": "1592043015.000100",
        "bot_id": "B0152N7U6PL",
        "blocks": [
            {
                "type": "section",
                "block_id": "dZPSc",
                "text": {
                    "type": "mrkdwn",
                    "text": "# DS Science Academy|227|0.5.8",
                    "verbatim": false
                }
            },
            {
                "type": "section",
                "block_id": "C1B",
                "text": {
                    "type": "mrkdwn",
                    "text": "# DS Science Academy",
                    "verbatim": false
                }
            },
            {
                "type": "section",
                "block_id": "Hrm1",
                "text": {
                    "type": "mrkdwn",
                    "text": " - SOURABH MEENA | sourabhaedb | OXpaMxMQpn5xrdwQ | _ | NO CONTACT&gt;",
                    "verbatim": false
                }
            },
            {
                "type": "section",
                "block_id": "AXCu\/",
                "text": {
                    "type": "mrkdwn",
                    "text": "LECTURES | video issue",
                    "verbatim": false
                }
            },
            {
                "type": "section",
                "block_id": "messagesection",
                "text": {
                    "type": "mrkdwn",
                    "text": "I have problem with ",
                    "verbatim": false
                }
            },
            {
                "type": "section",
                "block_id": "device",
                "text": {
                    "type": "mrkdwn",
                    "text": "vivo 1908 | vivo | vivo 1908",
                    "verbatim": false
                }
            }
        ]
    },
    {
        "type": "message",
        "subtype": "bot_message",
        "text": "This content can't be displayed.",
        "ts": "1592045878.000100",
        "bot_id": "B0152N7U6PL",
        "blocks": [
            {
                "type": "section",
                "block_id": "GZc",
                "text": {
                    "type": "mrkdwn",
                    "text": "# DS Science Academy|227|0.5.8",
                    "verbatim": false
                }
            },
            {
                "type": "section",
                "block_id": "V6F+",
                "text": {
                    "type": "mrkdwn",
                    "text": "# DS Science Academy",
                    "verbatim": false
                }
            },
            {
                "type": "section",
                "block_id": "gGDe",
                "text": {
                    "type": "mrkdwn",
                    "text": " - Vikram Singh Gurjar | vikramsinghbc56 | OXpaMxMjY7eLrdwQ | <mailto:gurjarramkesh165@gmail.com|gurjarramkesh165@gmail.com> | NO CONTACT&gt;",
                    "verbatim": false
                }
            },
            {
                "type": "section",
                "block_id": "AjxA",
                "text": {
                    "type": "mrkdwn",
                    "text": "OTHER TECHNICAL ISSUE | _",
                    "verbatim": false
                }
            },
            {
                "type": "section",
                "block_id": "messagesection",
                "text": {
                    "type": "mrkdwn",
                    "text": "I have problem with no option of live class",
                    "verbatim": false
                }
            },
            {
                "type": "section",
                "block_id": "device",
                "text": {
                    "type": "mrkdwn",
                    "text": "Moto G (4) | motorola | Moto G (4)",
                    "verbatim": false
                }
            }
        ]
    },
    {
        "type": "message",
        "subtype": "bot_message",
        "text": "This content can't be displayed.",
        "ts": "1592052779.000100",
        "bot_id": "B0152N7U6PL",
        "blocks": [
            {
                "type": "section",
                "block_id": "19lQ",
                "text": {
                    "type": "mrkdwn",
                    "text": "# DS Science Academy|227|0.5.8",
                    "verbatim": false
                }
            },
            {
                "type": "section",
                "block_id": "uVP",
                "text": {
                    "type": "mrkdwn",
                    "text": "# DS Science Academy",
                    "verbatim": false
                }
            },
            {
                "type": "section",
                "block_id": "klqBn",
                "text": {
                    "type": "mrkdwn",
                    "text": " - SUMER SINGH GURJAR | sumersinghbb41 | Xw5ObED5A0Jg7lrN | _ | NO CONTACT&gt;",
                    "verbatim": false
                }
            },
            {
                "type": "section",
                "block_id": "llD",
                "text": {
                    "type": "mrkdwn",
                    "text": "ONLINE TEST | content visibility issue",
                    "verbatim": false
                }
            },
            {
                "type": "section",
                "block_id": "messagesection",
                "text": {
                    "type": "mrkdwn",
                    "text": "I have problem with ",
                    "verbatim": false
                }
            },
            {
                "type": "section",
                "block_id": "device",
                "text": {
                    "type": "mrkdwn",
                    "text": "vivo 1901 | vivo | vivo 1901",
                    "verbatim": false
                }
            }
        ]
    },
    {
        "type": "message",
        "subtype": "bot_message",
        "text": "This content can't be displayed.",
        "ts": "1592059485.000100",
        "bot_id": "B0152N7U6PL",
        "blocks": [
            {
                "type": "section",
                "block_id": "MwM",
                "text": {
                    "type": "mrkdwn",
                    "text": "# DS Science Academy|227|0.5.8",
                    "verbatim": false
                }
            },
            {
                "type": "section",
                "block_id": "7qW",
                "text": {
                    "type": "mrkdwn",
                    "text": "# DS Science Academy",
                    "verbatim": false
                }
            },
            {
                "type": "section",
                "block_id": "y4KLA",
                "text": {
                    "type": "mrkdwn",
                    "text": " - NITIN KUMAR AGRAWAL | nitinkumarad84 | M7B9VgaG9YbLaGjN | _ | NO CONTACT&gt;",
                    "verbatim": false
                }
            },
            {
                "type": "section",
                "block_id": "TwK",
                "text": {
                    "type": "mrkdwn",
                    "text": "ONLINE TEST | other",
                    "verbatim": false
                }
            },
            {
                "type": "section",
                "block_id": "messagesection",
                "text": {
                    "type": "mrkdwn",
                    "text": "I have problem with test <http:\/\/timing.it|timing.it> should be start at morning. ",
                    "verbatim": false
                }
            },
            {
                "type": "section",
                "block_id": "device",
                "text": {
                    "type": "mrkdwn",
                    "text": "A37f | OPPO | OPPO A37f",
                    "verbatim": false
                }
            }
        ]
    },
    {
        "type": "message",
        "subtype": "bot_message",
        "text": "This content can't be displayed.",
        "ts": "1592104164.000100",
        "bot_id": "B0152N7U6PL",
        "blocks": [
            {
                "type": "section",
                "block_id": "QXD+",
                "text": {
                    "type": "mrkdwn",
                    "text": "# DS Science Academy|227|0.5.8",
                    "verbatim": false
                }
            },
            {
                "type": "section",
                "block_id": "JLnX",
                "text": {
                    "type": "mrkdwn",
                    "text": "# DS Science Academy",
                    "verbatim": false
                }
            },
            {
                "type": "section",
                "block_id": "wXLJv",
                "text": {
                    "type": "mrkdwn",
                    "text": " - AKSHAT MEENA | akshat8b6b | 2Qz1RxYKyP4EZmXb | _ | NO CONTACT&gt;",
                    "verbatim": false
                }
            },
            {
                "type": "section",
                "block_id": "OZ41",
                "text": {
                    "type": "mrkdwn",
                    "text": "ONLINE CLASSES | other",
                    "verbatim": false
                }
            },
            {
                "type": "section",
                "block_id": "messagesection",
                "text": {
                    "type": "mrkdwn",
                    "text": "I have problem with ",
                    "verbatim": false
                }
            },
            {
                "type": "section",
                "block_id": "device",
                "text": {
                    "type": "mrkdwn",
                    "text": "Redmi Note 4 | xiaomi | Redmi",
                    "verbatim": false
                }
            }
        ]
    },
    {
        "type": "message",
        "subtype": "bot_message",
        "text": "This content can't be displayed.",
        "ts": "1592114075.000100",
        "bot_id": "B0152N7U6PL",
        "blocks": [
            {
                "type": "section",
                "block_id": "OhV",
                "text": {
                    "type": "mrkdwn",
                    "text": "# DS Science Academy|227|0.5.8",
                    "verbatim": false
                }
            },
            {
                "type": "section",
                "block_id": "uPfw",
                "text": {
                    "type": "mrkdwn",
                    "text": "# DS Science Academy",
                    "verbatim": false
                }
            },
            {
                "type": "section",
                "block_id": "IhvX",
                "text": {
                    "type": "mrkdwn",
                    "text": " - ABHINAV SHARMA | Abhinav11 | Zz0P7gG61jeEwNYd | _ | NO CONTACT&gt;",
                    "verbatim": false
                }
            },
            {
                "type": "section",
                "block_id": "Hc6n",
                "text": {
                    "type": "mrkdwn",
                    "text": "LECTURES | video issue",
                    "verbatim": false
                }
            },
            {
                "type": "section",
                "block_id": "messagesection",
                "text": {
                    "type": "mrkdwn",
                    "text": "Videos are taking too much time in playing",
                    "verbatim": false
                }
            },
            {
                "type": "section",
                "block_id": "device",
                "text": {
                    "type": "mrkdwn",
                    "text": "Micromax AQ4501 | google | Micromax A1",
                    "verbatim": false
                }
            }
        ]
    },
    {
        "type": "message",
        "subtype": "bot_message",
        "text": "This content can't be displayed.",
        "ts": "1592114097.000200",
        "bot_id": "B0152N7U6PL",
        "blocks": [
            {
                "type": "section",
                "block_id": "ISu",
                "text": {
                    "type": "mrkdwn",
                    "text": "# DS Science Academy|227|0.5.8",
                    "verbatim": false
                }
            },
            {
                "type": "section",
                "block_id": "lsUp",
                "text": {
                    "type": "mrkdwn",
                    "text": "# DS Science Academy",
                    "verbatim": false
                }
            },
            {
                "type": "section",
                "block_id": "jmA5",
                "text": {
                    "type": "mrkdwn",
                    "text": " - ATUL RAJILWAD | atul6ee3 | oR1l5x3v8QogqNdO | _ | NO CONTACT&gt;",
                    "verbatim": false
                }
            },
            {
                "type": "section",
                "block_id": "KmiZ",
                "text": {
                    "type": "mrkdwn",
                    "text": "LECTURES | video issue",
                    "verbatim": false
                }
            },
            {
                "type": "section",
                "block_id": "messagesection",
                "text": {
                    "type": "mrkdwn",
                    "text": "I have problem with ",
                    "verbatim": false
                }
            },
            {
                "type": "section",
                "block_id": "device",
                "text": {
                    "type": "mrkdwn",
                    "text": "vivo 1915 | vivo | vivo 1915",
                    "verbatim": false
                }
            }
        ]
    },
    {
        "type": "message",
        "subtype": "bot_message",
        "text": "This content can't be displayed.",
        "ts": "1592116370.000100",
        "bot_id": "B0152N7U6PL",
        "blocks": [
            {
                "type": "section",
                "block_id": "tOhKg",
                "text": {
                    "type": "mrkdwn",
                    "text": "# DS Science Academy|227|0.5.8",
                    "verbatim": false
                }
            },
            {
                "type": "section",
                "block_id": "nWqm",
                "text": {
                    "type": "mrkdwn",
                    "text": "# DS Science Academy",
                    "verbatim": false
                }
            },
            {
                "type": "section",
                "block_id": "0reO",
                "text": {
                    "type": "mrkdwn",
                    "text": " - BHARTI SAIN | bhartiddad | y6pOBx4YeJwL2j8r | _ | NO CONTACT&gt;",
                    "verbatim": false
                }
            },
            {
                "type": "section",
                "block_id": "QCAs4",
                "text": {
                    "type": "mrkdwn",
                    "text": "OTHER TECHNICAL ISSUE | _",
                    "verbatim": false
                }
            },
            {
                "type": "section",
                "block_id": "messagesection",
                "text": {
                    "type": "mrkdwn",
                    "text": "I have problem with ",
                    "verbatim": false
                }
            },
            {
                "type": "section",
                "block_id": "device",
                "text": {
                    "type": "mrkdwn",
                    "text": "Redmi 6 Pro | xiaomi | Redmi",
                    "verbatim": false
                }
            }
        ]
    },
    {
        "type": "message",
        "subtype": "bot_message",
        "text": "This content can't be displayed.",
        "ts": "1592116503.000200",
        "bot_id": "B0152N7U6PL",
        "blocks": [
            {
                "type": "section",
                "block_id": "\/13",
                "text": {
                    "type": "mrkdwn",
                    "text": "# DS Science Academy|227|0.5.8",
                    "verbatim": false
                }
            },
            {
                "type": "section",
                "block_id": "+B=d",
                "text": {
                    "type": "mrkdwn",
                    "text": "# DS Science Academy",
                    "verbatim": false
                }
            },
            {
                "type": "section",
                "block_id": "jfB",
                "text": {
                    "type": "mrkdwn",
                    "text": " - BHARTI SAIN | bhartiddad | y6pOBx4YeJwL2j8r | _ | NO CONTACT&gt;",
                    "verbatim": false
                }
            },
            {
                "type": "section",
                "block_id": "AzWX",
                "text": {
                    "type": "mrkdwn",
                    "text": "LECTURES | video issue",
                    "verbatim": false
                }
            },
            {
                "type": "section",
                "block_id": "messagesection",
                "text": {
                    "type": "mrkdwn",
                    "text": "I have problem with ",
                    "verbatim": false
                }
            },
            {
                "type": "section",
                "block_id": "device",
                "text": {
                    "type": "mrkdwn",
                    "text": "Redmi 6 Pro | xiaomi | Redmi",
                    "verbatim": false
                }
            }
        ]
    }
]