[
    {
        "type": "message",
        "subtype": "bot_message",
        "text": "This content can't be displayed.",
        "ts": "1591933832.000100",
        "bot_id": "B0152N7U6PL",
        "blocks": [
            {
                "type": "section",
                "block_id": "\/=N",
                "text": {
                    "type": "mrkdwn",
                    "text": "# DS Science Academy|227|0.5.8",
                    "verbatim": false
                }
            },
            {
                "type": "section",
                "block_id": "Me0a",
                "text": {
                    "type": "mrkdwn",
                    "text": "# DS Science Academy",
                    "verbatim": false
                }
            },
            {
                "type": "section",
                "block_id": "npde",
                "text": {
                    "type": "mrkdwn",
                    "text": " - ANURAG MEENA | ANURAG MEENA | 2lYZyLQZ1p9EDnRM | _ | NO CONTACT&gt;",
                    "verbatim": false
                }
            },
            {
                "type": "section",
                "block_id": "NqJ7",
                "text": {
                    "type": "mrkdwn",
                    "text": "ONLINE TEST | bookmark issue",
                    "verbatim": false
                }
            },
            {
                "type": "section",
                "block_id": "messagesection",
                "text": {
                    "type": "mrkdwn",
                    "text": "I have problem with ",
                    "verbatim": false
                }
            },
            {
                "type": "section",
                "block_id": "device",
                "text": {
                    "type": "mrkdwn",
                    "text": "Lenovo A7010a48 | Lenovo | Lenovo VIBE K4 Note",
                    "verbatim": false
                }
            }
        ]
    },
    {
        "type": "message",
        "subtype": "bot_message",
        "text": "This content can't be displayed.",
        "ts": "1591934079.000200",
        "bot_id": "B0152N7U6PL",
        "blocks": [
            {
                "type": "section",
                "block_id": "+Lx=O",
                "text": {
                    "type": "mrkdwn",
                    "text": "# DS Science Academy|227|0.5.8",
                    "verbatim": false
                }
            },
            {
                "type": "section",
                "block_id": "Lir",
                "text": {
                    "type": "mrkdwn",
                    "text": "# DS Science Academy",
                    "verbatim": false
                }
            },
            {
                "type": "section",
                "block_id": "Oqws",
                "text": {
                    "type": "mrkdwn",
                    "text": " - ANURAG MEENA | ANURAG MEENA | 2lYZyLQZ1p9EDnRM | _ | NO CONTACT&gt;",
                    "verbatim": false
                }
            },
            {
                "type": "section",
                "block_id": "gYi6H",
                "text": {
                    "type": "mrkdwn",
                    "text": "ONLINE TEST | bookmark issue",
                    "verbatim": false
                }
            },
            {
                "type": "section",
                "block_id": "messagesection",
                "text": {
                    "type": "mrkdwn",
                    "text": "I bookmarked in test but the questions which I bookmarked is not come in bookmark option",
                    "verbatim": false
                }
            },
            {
                "type": "section",
                "block_id": "device",
                "text": {
                    "type": "mrkdwn",
                    "text": "Lenovo A7010a48 | Lenovo | Lenovo VIBE K4 Note",
                    "verbatim": false
                }
            }
        ]
    },
    {
        "type": "message",
        "subtype": "bot_message",
        "text": "This content can't be displayed.",
        "ts": "1591941115.000100",
        "bot_id": "B0152N7U6PL",
        "blocks": [
            {
                "type": "section",
                "block_id": "9eiTI",
                "text": {
                    "type": "mrkdwn",
                    "text": "# DS Science Academy|227|0.5.8",
                    "verbatim": false
                }
            },
            {
                "type": "section",
                "block_id": "wm0Oh",
                "text": {
                    "type": "mrkdwn",
                    "text": "# DS Science Academy",
                    "verbatim": false
                }
            },
            {
                "type": "section",
                "block_id": "Cbi3",
                "text": {
                    "type": "mrkdwn",
                    "text": " - MAYANK SHARMA | Sharma ji | V6917EAKa9bx4WNG | _ | 9460152955&gt;",
                    "verbatim": false
                }
            },
            {
                "type": "section",
                "block_id": "1BT",
                "text": {
                    "type": "mrkdwn",
                    "text": "ASSIGNMENTS | attachment issue",
                    "verbatim": false
                }
            },
            {
                "type": "section",
                "block_id": "messagesection",
                "text": {
                    "type": "mrkdwn",
                    "text": "I have problem with submitting my assignment as there is no option available for delete the submitted assignment..\n :point_up::point_up::point_up::clap:\nSO PLEASE LOOK INTO THE MATTER IMMEDIATELY AND DO THE NEEDFUL",
                    "verbatim": false
                }
            },
            {
                "type": "section",
                "block_id": "device",
                "text": {
                    "type": "mrkdwn",
                    "text": "vivo 1904 | vivo | vivo 1904",
                    "verbatim": false
                }
            }
        ]
    },
    {
        "type": "message",
        "subtype": "bot_message",
        "text": "This content can't be displayed.",
        "ts": "1591941268.000200",
        "bot_id": "B0152N7U6PL",
        "blocks": [
            {
                "type": "section",
                "block_id": "Demf",
                "text": {
                    "type": "mrkdwn",
                    "text": "# DS Science Academy|227|0.5.8",
                    "verbatim": false
                }
            },
            {
                "type": "section",
                "block_id": "mA5V",
                "text": {
                    "type": "mrkdwn",
                    "text": "# DS Science Academy",
                    "verbatim": false
                }
            },
            {
                "type": "section",
                "block_id": "kqy=t",
                "text": {
                    "type": "mrkdwn",
                    "text": " - MAYANK SHARMA | Sharma ji | V6917EAKa9bx4WNG | _ | 9460152955&gt;",
                    "verbatim": false
                }
            },
            {
                "type": "section",
                "block_id": "bCv9",
                "text": {
                    "type": "mrkdwn",
                    "text": "ASSIGNMENTS | assignment submit issue",
                    "verbatim": false
                }
            },
            {
                "type": "section",
                "block_id": "messagesection",
                "text": {
                    "type": "mrkdwn",
                    "text": "I have problem with  PLEASE MADE AVAILABLE THE DELETING OPTIONS .\nFOR THE SUBMITTED ASSIGNMENT :+1:\n:point_up::point_up::point_up::point_up::clap:\nSO, PLEASE LOOK INTO THE MATTER IMMEDIATELY AND DO THE NEEDFUL",
                    "verbatim": false
                }
            },
            {
                "type": "section",
                "block_id": "device",
                "text": {
                    "type": "mrkdwn",
                    "text": "vivo 1904 | vivo | vivo 1904",
                    "verbatim": false
                }
            }
        ]
    },
    {
        "type": "message",
        "subtype": "bot_message",
        "text": "This content can't be displayed.",
        "ts": "1591941608.000300",
        "bot_id": "B0152N7U6PL",
        "blocks": [
            {
                "type": "section",
                "block_id": "x9Q2",
                "text": {
                    "type": "mrkdwn",
                    "text": "# DS Science Academy|227|0.5.8",
                    "verbatim": false
                }
            },
            {
                "type": "section",
                "block_id": "czWd",
                "text": {
                    "type": "mrkdwn",
                    "text": "# DS Science Academy",
                    "verbatim": false
                }
            },
            {
                "type": "section",
                "block_id": "DHSQ+",
                "text": {
                    "type": "mrkdwn",
                    "text": " - VINAY SHARMA | VINAY SHARMA | Xw5ObED53rYg7lrN | _ | NO CONTACT&gt;",
                    "verbatim": false
                }
            },
            {
                "type": "section",
                "block_id": "MOva",
                "text": {
                    "type": "mrkdwn",
                    "text": "ONLINE CLASSES | connection issue",
                    "verbatim": false
                }
            },
            {
                "type": "section",
                "block_id": "messagesection",
                "text": {
                    "type": "mrkdwn",
                    "text": "I have problem with ",
                    "verbatim": false
                }
            },
            {
                "type": "section",
                "block_id": "device",
                "text": {
                    "type": "mrkdwn",
                    "text": "SM-M305F | samsung | Galaxy M30",
                    "verbatim": false
                }
            }
        ]
    },
    {
        "type": "message",
        "subtype": "bot_message",
        "text": "This content can't be displayed.",
        "ts": "1591943814.000100",
        "bot_id": "B0152N7U6PL",
        "blocks": [
            {
                "type": "section",
                "block_id": "B7Ex",
                "text": {
                    "type": "mrkdwn",
                    "text": "# DS Science Academy|227|0.5.8",
                    "verbatim": false
                }
            },
            {
                "type": "section",
                "block_id": "NMpNR",
                "text": {
                    "type": "mrkdwn",
                    "text": "# DS Science Academy",
                    "verbatim": false
                }
            },
            {
                "type": "section",
                "block_id": "kQPxO",
                "text": {
                    "type": "mrkdwn",
                    "text": " - Apurav Jain | apuravfe34 | 2lYZyLQZGbbEDnRM | _ | NO CONTACT&gt;",
                    "verbatim": false
                }
            },
            {
                "type": "section",
                "block_id": "XOZj",
                "text": {
                    "type": "mrkdwn",
                    "text": "DOUBTS | other",
                    "verbatim": false
                }
            },
            {
                "type": "section",
                "block_id": "messagesection",
                "text": {
                    "type": "mrkdwn",
                    "text": "I have problem with teacher , my doubt is not solved till now of physics.",
                    "verbatim": false
                }
            },
            {
                "type": "section",
                "block_id": "device",
                "text": {
                    "type": "mrkdwn",
                    "text": "Lenovo TB-X505X | Lenovo | Lenovo Tab M10",
                    "verbatim": false
                }
            }
        ]
    }
]