[
    {
        "type": "section",
        "block_id": "3bt9",
        "text": {
            "type": "mrkdwn",
            "text": "# DS Science Academy|227|0.5.8",
            "verbatim": false
        }
    },
    {
        "type": "section",
        "block_id": "nWWM",
        "text": {
            "type": "mrkdwn",
            "text": "# DS Science Academy",
            "verbatim": false
        }
    },
    {
        "type": "section",
        "block_id": "kM8V",
        "text": {
            "type": "mrkdwn",
            "text": " - ANSH JANGID | ansh3bb5 | 8bB41goZz43E9mJY | _ | NO CONTACT&gt;",
            "verbatim": false
        }
    },
    {
        "type": "section",
        "block_id": "EC\/",
        "text": {
            "type": "mrkdwn",
            "text": "ASSIGNMENTS | assignment submit issue",
            "verbatim": false
        }
    },
    {
        "type": "section",
        "block_id": "messagesection",
        "text": {
            "type": "mrkdwn",
            "text": "I have problem with the submission of assingment, the options of daily hw submitting are not shown by the app, means in hindi daily a option come according to that days hw but in other subjects there are  not the options.we are forced to submit by attaching in previous days hw.\nSO, PLEASE MAKE SEPERATE FOLDERS EVERYDAY OF EACH SUBJECT TO SUBMIT ASSINGMENT.\nThanks.",
            "verbatim": false
        }
    },
    {
        "type": "section",
        "block_id": "device",
        "text": {
            "type": "mrkdwn",
            "text": "vivo 1818 | vivo | da803660",
            "verbatim": false
        }
    }
]